CardNumber,ExpirationDate,Holder
5512345678901234,18-aug-2014,john doe
4123456789012,18-aug-2014,jack roe
341234567890123,18-aug-2014,sparrow
6011012345678901,18-aug-2014,gerald
4123456789012000,18-aug-2014,robert
371234567890123,18-aug-2014,sam